<?xml version="1.0" encoding="UTF-8"?>
<!DOCTYPE svg PUBLIC "-//W3C//DTD SVG 1.1//EN" "http://www.w3.org/Graphics/SVG/1.1/DTD/svg11.dtd">
<svg version="1.1" id="Layer_1" xmlns="http://www.w3.org/2000/svg" xmlns:xlink="http://www.w3.org/1999/xlink" x="0px" y="0px" width="24px" height="24px" viewBox="0 0 24 24" enable-background="new 0 0 24 24" xml:space="preserve">
  <g id="icon">
    <path d="M18.6,15.524c-0.2,-0.053,-0.394,-0.105,-0.605,-0.155c-0.86,-0.204,-1.637,-0.513,-2.395,-0.913c-0.142,-0.075,-0.245,-0.234,-0.304,-0.342c-0.262,-0.564,-0.116,-1.649,0.042,-2.456c0.001,-0.038,0.009,-0.078,0.024,-0.116c-0.239,0.309,-0.802,0.781,-0.834,0.803c-0.238,0.161,-0.474,0.333,-0.727,0.473c-0.428,0.236,-0.859,0.498,-1.372,0.58c-0.128,0.02,-0.219,0.028,-0.428,0.027c-0.141,0.002,-0.28,-0.006,-0.408,-0.027c-0.514,-0.082,-0.934,-0.343,-1.362,-0.58c-0.254,-0.14,-0.484,-0.312,-0.722,-0.473c-0.032,-0.022,-0.592,-0.494,-0.831,-0.803c0.015,0.039,0.025,0.078,0.026,0.116c0.158,0.808,0.305,1.892,0.043,2.456c-0.059,0.108,-0.162,0.267,-0.304,0.342c-0.758,0.401,-1.555,0.709,-2.416,0.913c-0.211,0.05,-0.426,0.102,-0.626,0.155v1.071L12,22l6.6,-5.405V15.524z" fill="#D6B1A3"/>
    <path d="M16.76,7.365c-0.208,-0.059,-0.279,0.159,-0.34,0.306c-0.103,0.249,-0.095,0.502,-0.205,0.793c-0.025,-0.104,-0.046,-0.164,-0.054,-0.227c-0.066,-0.569,-0.01,-1.14,-0.095,-1.707c-0.095,-0.632,-0.345,-1.336,-0.768,-1.865c-0.271,-0.339,-0.639,-0.484,-1.107,-0.416c-0.574,0.085,-1.207,0.159,-1.783,0.233c-0.134,0.017,-0.308,0.03,-0.404,0.034c-0.096,-0.004,-0.256,-0.017,-0.389,-0.034c-0.576,-0.074,-1.201,-0.148,-1.775,-0.233c-0.468,-0.069,-0.832,0.076,-1.103,0.416c-0.423,0.529,-0.671,1.233,-0.766,1.865c-0.085,0.567,-0.028,1.138,-0.094,1.707c-0.007,0.062,-0.081,-0.011,-0.081,-0.011s-0.171,-0.307,-0.275,-0.556c-0.061,-0.146,-0.132,-0.365,-0.34,-0.306c-0.233,0.066,-0.11,0.277,-0.074,0.435c0.132,0.576,0.255,1.154,0.398,1.727c0.037,0.149,0.084,0.604,0.21,0.617c0.126,0.013,0.156,-0.288,0.244,-0.354c0.043,0.251,0.107,0.474,0.114,0.698c0.019,0.594,0.296,1.102,0.62,1.6c0.019,0.029,0.037,0.06,0.052,0.092c0.337,0.311,0.904,0.842,1.675,1.255c0.458,0.241,0.913,0.415,1.441,0.452c0.053,0.004,0.143,0.006,0.143,0.007c0,-0.001,0.104,-0.003,0.157,-0.007c0.528,-0.037,0.998,-0.211,1.456,-0.452c0.772,-0.412,1.339,-0.944,1.675,-1.255c0.015,-0.032,0.033,-0.063,0.052,-0.092c0.324,-0.498,0.602,-1.007,0.62,-1.6c0.007,-0.224,0.071,-0.447,0.114,-0.698c0.088,0.065,0.118,0.367,0.244,0.354c0.126,-0.013,0.173,-0.468,0.21,-0.617c0.143,-0.574,0.168,-1.151,0.3,-1.727C16.87,7.642,16.993,7.431,16.76,7.365z" fill="#E6CBBF"/>
    <path d="M15.1,12.318c-0.3,0.315,-0.836,0.76,-1.504,1.117c-0.458,0.241,-0.917,0.415,-1.445,0.452c-0.053,0.004,-0.152,0.006,-0.152,0.007c0,-0.001,-0.087,-0.003,-0.14,-0.007c-0.528,-0.037,-0.961,-0.211,-1.419,-0.452C9.748,13.065,9.2,12.6,8.9,12.284v0.195c0.3,0.316,0.849,1.074,1.542,1.445c0.458,0.241,0.902,0.415,1.431,0.452c0.053,0.004,0.138,0.006,0.138,0.007c0,-0.001,0.102,-0.003,0.155,-0.007c0.528,-0.037,0.975,-0.211,1.433,-0.452c0.667,-0.357,1.202,-1.095,1.502,-1.41V12.318z" fill="#8E725E" opacity="0.2"/>
    <path d="M22.881,19.153c-0.673,-3.27,-1.544,-2.94,-6.881,-4.553c-3.2,0.8,-4,6.2,-4,6.2s-0.5,-5.5,-4,-6.2c-6.117,2.017,-6.292,1.658,-6.914,4.551c-0.166,1.066,-0.194,1.512,0.248,2.693c0.43,1.149,9.145,1.161,9.145,1.161l3,0c0,0,8.717,-0.024,9.143,-1.16C23.064,20.664,23.047,20.218,22.881,19.153z" fill-rule="evenodd" fill="#FFFFFF"/>
    <path d="M22.881,19.153c-0.673,-3.27,-1.544,-2.94,-6.881,-4.553c-3.2,0.8,-4,6.2,-4,6.2s-0.5,-5.5,-4,-6.2c-6.117,2.017,-6.292,1.658,-6.914,4.551c-0.166,1.066,-0.194,1.512,0.248,2.693c0.43,1.149,9.145,1.161,9.145,1.161l3,0c0,0,8.717,-0.024,9.143,-1.16C23.064,20.664,23.047,20.218,22.881,19.153z" fill-rule="evenodd" fill="#4FC0E8" opacity="0.43"/>
    <path d="M16.383,4.483c-0.012,-0.551,-0.549,-1.566,-0.787,-1.826c-0.823,-1.077,-2.025,-1.223,-3.591,-1.253c-1.597,0.03,-2.79,0.175,-3.613,1.253c-0.238,0.261,-0.886,1.276,-0.898,1.826c-0.016,0.72,-0.402,1.448,-0.174,2.164c0.088,0.277,0.085,0.576,0.157,0.858c0.08,0.318,0.249,0.9,0.32,0.904c0.071,0.004,0.094,-0.142,0.098,-0.183c0.052,-0.499,0.056,-0.905,0.123,-1.403c0.113,-0.838,0.126,-1.073,0.631,-1.837c0.194,-0.294,0.407,-0.606,0.847,-0.613c0.437,-0.006,0.876,0.052,1.312,0.099c0.333,0.036,0.661,0.14,0.991,0.14c0.069,0,0.138,-0.002,0.207,-0.004c0,0.002,0.116,0.004,0.185,0.004c0.33,0,0.637,-0.104,0.969,-0.14c0.436,-0.047,0.875,-0.105,1.312,-0.099c0.44,0.006,0.653,0.319,0.847,0.613c0.505,0.765,0.517,0.999,0.631,1.837c0.067,0.498,0.071,0.903,0.124,1.403c0.004,0.04,0.028,0.187,0.099,0.183c0.071,-0.004,0.241,-0.587,0.321,-0.904c0.071,-0.283,0.071,-0.581,0.159,-0.858C16.879,5.931,16.399,5.203,16.383,4.483z" fill="#434A54"/>
    <path d="M7.7,19.3l3,-2.6c0.6,1.1,1.1,2.2,1.313,4.05C11.2,18.3,10.5,17.2,7.7,19.3zM16.413,19.3l-3,-2.6c-0.6,1.1,-1.113,2.2,-1.413,4.1C12.813,18.35,13.613,17.2,16.413,19.3z" fill-rule="evenodd" fill="#231F20" opacity="0.1"/>
    <polygon points="10.8,16.8 8.844,13.9 7.667,14.696 7.625,19.318" fill="#3BAEDA" stroke-linejoin="miter"/>
    <polygon points="13.325,16.8 15.281,13.9 16.459,14.696 16.5,19.318" fill="#3BAEDA" stroke-linejoin="miter"/>
    <path d="M12.4,21.5c0,0.221,-0.179,0.4,-0.4,0.4s-0.4,-0.179,-0.4,-0.4s0.179,-0.4,0.4,-0.4S12.4,21.279,12.4,21.5z" fill-rule="evenodd" fill="#24282D" opacity="0.5"/>
    <path d="M22.881,19.153c-0.653,-3.175,-1.494,-2.956,-6.431,-4.418l0.008,-0.039L15.281,13.9l-0.041,0.061c-0.136,-0.448,-0.093,-1.113,0,-1.731c0.018,-0.016,0.037,-0.034,0.054,-0.05c0.015,-0.032,0.033,-0.063,0.052,-0.092c0.324,-0.498,0.602,-1.007,0.62,-1.6c0.007,-0.224,0.071,-0.447,0.114,-0.698c0.088,0.065,0.118,0.367,0.244,0.354c0.126,-0.013,0.173,-0.468,0.21,-0.617c0.143,-0.574,0.168,-1.151,0.3,-1.727c0.036,-0.157,0.159,-0.368,-0.074,-0.435c-0.137,-0.039,-0.214,0.043,-0.269,0.145c0,-0.001,0.001,-0.003,0.001,-0.005c0.071,-0.283,0.071,-0.581,0.159,-0.858c0.228,-0.715,-0.252,-1.443,-0.268,-2.164c-0.012,-0.551,-0.549,-1.566,-0.787,-1.826c-0.823,-1.077,-2.025,-1.223,-3.591,-1.253c-0.002,0,-0.003,0,-0.005,0v21.602l1.479,0c0,0,8.717,-0.024,9.143,-1.16C23.064,20.664,23.047,20.218,22.881,19.153zM16.3,8.157c-0.02,0.098,-0.044,0.2,-0.084,0.307c-0.007,-0.028,-0.013,-0.052,-0.019,-0.075C16.224,8.352,16.261,8.267,16.3,8.157z" fill="#231F20" opacity="0.08"/>
    <path d="M12.1,0.401L12.1,0.401C12.099,0.4,12.073,0.4,12.046,0.4c-0.002,0,-0.004,0,-0.006,0c0,0,-0.01,0,-0.023,0c-0.013,0,-0.022,0,-0.023,0c-0.002,0,-0.004,0,-0.006,0c-0.026,0,-0.053,0,-0.054,0v0.001c-3.347,0.278,-4.595,1.776,-4.8,4.922c-0.005,0.08,0.335,0.16,0.443,0.24l0.011,-0.005c1.814,-0.826,3.148,-1.178,4.46,-1.178c1.307,0,2.625,0.345,4.408,1.155l0.025,0.011c0.128,-0.074,0.424,-0.148,0.416,-0.223C16.572,2.162,15.349,0.617,12.1,0.401z" fill="#3BAEDA"/>
    <path d="M15.755,7.55c-0.08,0,-0.159,-0.017,-0.235,-0.051c-0.001,-0.001,-0.008,-0.004,-0.018,-0.011c-0.304,-0.205,-1.446,-0.673,-3.378,-0.673l-0.237,0v0c-1.916,0.006,-3.049,0.469,-3.352,0.673c-0.011,0.007,-0.017,0.011,-0.019,0.011c-0.076,0.034,-0.155,0.051,-0.235,0.051c-0.162,0,-0.322,-0.072,-0.45,-0.204c-0.179,-0.184,-0.281,-0.481,-0.281,-0.815c0,-0.138,0.004,-0.278,0.013,-0.416l-0.008,-0.041l0.036,-0.016c1.814,-0.826,3.148,-1.178,4.46,-1.178c1.307,0,2.625,0.345,4.408,1.155l0.063,0.029c0,0,-0.048,0.052,-0.048,0.052c0.008,0.138,0.013,0.278,0.013,0.416c0,0.334,-0.103,0.631,-0.281,0.815C16.077,7.478,15.917,7.55,15.755,7.55z" fill="#8E725E" opacity="0.2"/>
    <path d="M15.755,7.05c-0.08,0,-0.159,-0.017,-0.235,-0.051c-0.001,-0.001,-0.008,-0.004,-0.018,-0.011c-0.304,-0.205,-1.446,-0.873,-3.378,-0.873l-0.237,0v0c-1.916,0.006,-3.049,0.669,-3.352,0.873c-0.011,0.007,-0.017,0.011,-0.019,0.011c-0.076,0.034,-0.155,0.051,-0.235,0.051c-0.162,0,-0.322,-0.072,-0.45,-0.204c-0.179,-0.184,-0.281,-0.481,-0.281,-0.815c0,-0.138,0.004,-0.278,0.013,-0.416l-0.008,-0.041l0.036,-0.016c1.814,-0.826,3.148,-1.178,4.46,-1.178c1.307,0,2.625,0.345,4.408,1.155l0.063,0.029c0,0,-0.048,0.052,-0.048,0.052c0.008,0.138,0.013,0.278,0.013,0.416c0,0.334,-0.103,0.631,-0.281,0.815C16.077,6.978,15.917,7.05,15.755,7.05z" fill="#FFFFFF"/>
    <path d="M15.755,7.05c-0.08,0,-0.159,-0.017,-0.235,-0.051c-0.001,-0.001,-0.008,-0.004,-0.018,-0.011c-0.304,-0.205,-1.446,-0.873,-3.378,-0.873l-0.237,0v0c-1.916,0.006,-3.049,0.669,-3.352,0.873c-0.011,0.007,-0.017,0.011,-0.019,0.011c-0.076,0.034,-0.155,0.051,-0.235,0.051c-0.162,0,-0.322,-0.072,-0.45,-0.204c-0.179,-0.184,-0.281,-0.481,-0.281,-0.815c0,-0.138,0.004,-0.278,0.013,-0.416l-0.008,-0.041l0.036,-0.016c1.814,-0.826,3.148,-1.178,4.46,-1.178c1.307,0,2.625,0.345,4.408,1.155l0.063,0.029c0,0,-0.048,0.052,-0.048,0.052c0.008,0.138,0.013,0.278,0.013,0.416c0,0.334,-0.103,0.631,-0.281,0.815C16.077,6.978,15.917,7.05,15.755,7.05z" fill="#4FC0E8" opacity="0.4"/>
    <path d="M7.8,21H4.2c-0.11,0,-0.2,-0.09,-0.2,-0.2v-0.6c0,-0.11,0.09,-0.2,0.2,-0.2h3.6c0.11,0,0.2,0.09,0.2,0.2v0.6C8,20.91,7.91,21,7.8,21z" fill="#3BAEDA"/>
    <path d="M12.1,0.401L12.1,0.401C12.099,0.4,12.073,0.4,12.046,0.4c-0.002,0,-0.004,0,-0.006,0c0,0,-0.01,0,-0.023,0c-0.008,0,-0.014,0,-0.018,0v5.73l0.124,0c1.932,0,3.074,0.693,3.378,0.906c0.011,0.007,0.017,0.011,0.018,0.012c0.076,0.035,0.155,0.053,0.235,0.053c0.162,0,0.322,-0.075,0.45,-0.212c0.179,-0.191,0.281,-0.499,0.281,-0.846c0,-0.143,-0.004,-0.288,-0.013,-0.432c0,0,0.022,-0.025,0.036,-0.041c0.138,-0.07,0.397,-0.14,0.39,-0.21C16.572,2.175,15.349,0.618,12.1,0.401z" fill="#231F20" opacity="0.1"/>
  </g>
</svg>
