<?xml version="1.0" encoding="UTF-8"?>
<!DOCTYPE svg PUBLIC "-//W3C//DTD SVG 1.1//EN" "http://www.w3.org/Graphics/SVG/1.1/DTD/svg11.dtd">
<svg version="1.1" id="Layer_1" xmlns="http://www.w3.org/2000/svg" xmlns:xlink="http://www.w3.org/1999/xlink" x="0px" y="0px" width="24px" height="24px" viewBox="0 0 24 24" enable-background="new 0 0 24 24" xml:space="preserve">
  <g id="icon">
    <path d="M18.506,15H5.494c-0.303,0,-0.579,0.171,-0.715,0.441L1.12,21.351C0.746,22.097,1.366,23,2.2,23h19.6c0.834,0,1.454,-0.903,1.08,-1.649l-3.658,-5.909C19.086,15.171,18.809,15,18.506,15z" fill="#AAB2BD"/>
    <path d="M17.7,16H6.4c-0.227,0,-0.536,0,-0.636,0.2l-1.966,4.1c-0.281,0.741,0.074,0.7,0.7,0.7H19.7c0.626,0,0.781,-0.235,0.5,-0.7l-2,-4.025C18.098,16.107,17.927,16,17.7,16z" fill="#FFFFFF"/>
    <path d="M12,1c-3.811,0,-6.9,3.089,-6.9,6.9c0,4.313,6.059,12.075,6.9,12.075S18.9,12.213,18.9,7.9C18.9,4.089,15.811,1,12,1zM12,10.488c-1.429,0,-2.588,-1.158,-2.588,-2.588S10.571,5.313,12,5.313S14.588,6.471,14.588,7.9S13.429,10.488,12,10.488z" fill="#5D9CEC"/>
    <path d="M14.588,7.9c0,1.429,-1.158,2.588,-2.588,2.588v9.488c0.841,0,6.9,-7.763,6.9,-12.075c0,-3.811,-3.089,-6.9,-6.9,-6.9v4.313C13.429,5.313,14.588,6.471,14.588,7.9z" fill="#4B89DC"/>
    <path d="M12,3.588c-2.382,0,-4.313,1.931,-4.313,4.313c0,2.382,1.931,4.313,4.313,4.313s4.313,-1.931,4.313,-4.313C16.313,5.518,14.382,3.588,12,3.588zM12,10.488c-1.429,0,-2.588,-1.158,-2.588,-2.588S10.571,5.313,12,5.313S14.588,6.471,14.588,7.9S13.429,10.488,12,10.488z" fill="#3D73AD"/>
  </g>
</svg>
